-- Merging decision tree log ---
manifest
ADDED from D:\Kotlin\Recurso de kotlin curse\WeatherApp\app\src\main\AndroidManifest.xml:2:1-37:12
INJECTED from D:\Kotlin\Recurso de kotlin curse\WeatherApp\app\src\main\AndroidManifest.xml:2:1-37:12
INJECTED from D:\Kotlin\Recurso de kotlin curse\WeatherApp\app\src\main\AndroidManifest.xml:2:1-37:12
INJECTED from D:\Kotlin\Recurso de kotlin curse\WeatherApp\app\src\main\AndroidManifest.xml:2:1-37:12
MERGED from [androidx.core:core-ktx:1.2.0] C:\Users\yunie\.gradle\caches\transforms-2\files-2.1\bf6c48b1534ae8b9bcfc8078effa2a58\jetified-core-ktx-1.2.0\AndroidManifest.xml:2:1-9:12
MERGED from [com.karumi:dexter:6.0.1] C:\Users\yunie\.gradle\caches\transforms-2\files-2.1\33e463cb00bf3c8b5c973798eba6a91c\jetified-dexter-6.0.1\AndroidManifest.xml:17:1-32:12
MERGED from [com.google.android.material:material:1.1.0] C:\Users\yunie\.gradle\caches\transforms-2\files-2.1\5c06b4c920bade8b263672a626e753be\material-1.1.0\AndroidManifest.xml:17:1-24:12
MERGED from [androidx.appcompat:appcompat:1.1.0] C:\Users\yunie\.gradle\caches\transforms-2\files-2.1\5988781b109aa2e81ee2deed8375ae92\appcompat-1.1.0\AndroidManifest.xml:17:1-24:12
MERGED from [androidx.constraintlayout:constraintlayout:1.1.3] C:\Users\yunie\.gradle\caches\transforms-2\files-2.1\f5f7a66620d8831b0e3f7e12ec37a827\constraintlayout-1.1.3\AndroidManifest.xml:2:1-11:12
MERGED from [com.google.android.gms:play-services-location:17.0.0] C:\Users\yunie\.gradle\caches\transforms-2\files-2.1\6b86d061e80bfd4127c5e61d166b3f3b\jetified-play-services-location-17.0.0\AndroidManifest.xml:2:1-9:12
MERGED from [androidx.viewpager2:viewpager2:1.0.0] C:\Users\yunie\.gradle\caches\transforms-2\files-2.1\f24d20cba64d2e369ac3133f223f08fb\jetified-viewpager2-1.0.0\AndroidManifest.xml:17:1-24:12
MERGED from [com.google.android.gms:play-services-base:17.0.0] C:\Users\yunie\.gradle\caches\transforms-2\files-2.1\a1852856b1d290555ec8c0cfe17a2224\jetified-play-services-base-17.0.0\AndroidManifest.xml:17:1-29:12
MERGED from [com.google.android.gms:play-services-places-placereport:17.0.0] C:\Users\yunie\.gradle\caches\transforms-2\files-2.1\ce7ed83500a245b00a61bb370302df12\jetified-play-services-places-placereport-17.0.0\AndroidManifest.xml:17:1-24:12
MERGED from [com.google.android.gms:play-services-tasks:17.0.0] C:\Users\yunie\.gradle\caches\transforms-2\files-2.1\b3152b278fc6d4f36bb2f92ad4326265\jetified-play-services-tasks-17.0.0\AndroidManifest.xml:2:1-9:12
MERGED from [com.google.android.gms:play-services-basement:17.0.0] C:\Users\yunie\.gradle\caches\transforms-2\files-2.1\a5708f76bd0138d4b7ff900108558b44\jetified-play-services-basement-17.0.0\AndroidManifest.xml:17:1-28:12
MERGED from [androidx.fragment:fragment:1.1.0] C:\Users\yunie\.gradle\caches\transforms-2\files-2.1\2b728301d77254c90b065a7562075b49\fragment-1.1.0\AndroidManifest.xml:17:1-24:12
MERGED from [androidx.appcompat:appcompat-resources:1.1.0] C:\Users\yunie\.gradle\caches\transforms-2\files-2.1\23e56bf4112e29058c6bdbb998741be3\jetified-appcompat-resources-1.1.0\AndroidManifest.xml:17:1-24:12
MERGED from [androidx.drawerlayout:drawerlayout:1.0.0] C:\Users\yunie\.gradle\caches\transforms-2\files-2.1\cfd36d373bdd98f673d73f1567426fdc\drawerlayout-1.0.0\AndroidManifest.xml:17:1-22:12
MERGED from [androidx.coordinatorlayout:coordinatorlayout:1.1.0] C:\Users\yunie\.gradle\caches\transforms-2\files-2.1\0794bcf9945539c65bda912d2756d9e0\coordinatorlayout-1.1.0\AndroidManifest.xml:17:1-24:12
MERGED from [androidx.transition:transition:1.2.0] C:\Users\yunie\.gradle\caches\transforms-2\files-2.1\01aff950c9c0ff85291149845ccae350\transition-1.2.0\AndroidManifest.xml:17:1-24:12
MERGED from [androidx.vectordrawable:vectordrawable-animated:1.1.0] C:\Users\yunie\.gradle\caches\transforms-2\files-2.1\9b4bd89cc4df75282110b16ba7443912\vectordrawable-animated-1.1.0\AndroidManifest.xml:17:1-24:12
MERGED from [androidx.vectordrawable:vectordrawable:1.1.0] C:\Users\yunie\.gradle\caches\transforms-2\files-2.1\cf9a3c4239bbce36276eb74597875761\vectordrawable-1.1.0\AndroidManifest.xml:17:1-24:12
MERGED from [androidx.viewpager:viewpager:1.0.0] C:\Users\yunie\.gradle\caches\transforms-2\files-2.1\04c94a1e7cecc3639be07ee7f25b855e\viewpager-1.0.0\AndroidManifest.xml:17:1-22:12
MERGED from [androidx.loader:loader:1.0.0] C:\Users\yunie\.gradle\caches\transforms-2\files-2.1\ca5a9502cec0e083550aa68eca95ec74\loader-1.0.0\AndroidManifest.xml:17:1-22:12
MERGED from [androidx.activity:activity:1.0.0] C:\Users\yunie\.gradle\caches\transforms-2\files-2.1\ecffca00653532609abe88e9789dadff\jetified-activity-1.0.0\AndroidManifest.xml:17:1-24:12
MERGED from [androidx.recyclerview:recyclerview:1.1.0] C:\Users\yunie\.gradle\caches\transforms-2\files-2.1\4bf87db73252c50799dd4779e7584e6b\recyclerview-1.1.0\AndroidManifest.xml:17:1-24:12
MERGED from [androidx.customview:customview:1.0.0] C:\Users\yunie\.gradle\caches\transforms-2\files-2.1\9185af937948e70e6273b8b7c146a0fd\customview-1.0.0\AndroidManifest.xml:17:1-22:12
MERGED from [androidx.core:core:1.2.0] C:\Users\yunie\.gradle\caches\transforms-2\files-2.1\f8a25a8e7a6c14f5ca703a491b755ba2\core-1.2.0\AndroidManifest.xml:17:1-26:12
MERGED from [androidx.cursoradapter:cursoradapter:1.0.0] C:\Users\yunie\.gradle\caches\transforms-2\files-2.1\2b6c40ebf3a7527b5521abceeab31967\cursoradapter-1.0.0\AndroidManifest.xml:17:1-22:12
MERGED from [androidx.cardview:cardview:1.0.0] C:\Users\yunie\.gradle\caches\transforms-2\files-2.1\ef8209598623eddd7fbffdae67b9c452\cardview-1.0.0\AndroidManifest.xml:17:1-22:12
MERGED from [androidx.versionedparcelable:versionedparcelable:1.1.0] C:\Users\yunie\.gradle\caches\transforms-2\files-2.1\433b8fba667129f84d564b9e3aaa0ddd\versionedparcelable-1.1.0\AndroidManifest.xml:17:1-27:12
MERGED from [androidx.lifecycle:lifecycle-runtime:2.1.0] C:\Users\yunie\.gradle\caches\transforms-2\files-2.1\d9d950513c2b90d5b5a1cd36e8e2141d\lifecycle-runtime-2.1.0\AndroidManifest.xml:17:1-22:12
MERGED from [androidx.lifecycle:lifecycle-viewmodel:2.1.0] C:\Users\yunie\.gradle\caches\transforms-2\files-2.1\8456620f0bc752195c9a1b00fa0ee35b\lifecycle-viewmodel-2.1.0\AndroidManifest.xml:17:1-22:12
MERGED from [androidx.savedstate:savedstate:1.0.0] C:\Users\yunie\.gradle\caches\transforms-2\files-2.1\d1534bc0e3871862af150714bf66906a\jetified-savedstate-1.0.0\AndroidManifest.xml:17:1-24:12
MERGED from [androidx.interpolator:interpolator:1.0.0] C:\Users\yunie\.gradle\caches\transforms-2\files-2.1\c7f0935e7d55a72aff026eb580088845\interpolator-1.0.0\AndroidManifest.xml:17:1-22:12
MERGED from [androidx.lifecycle:lifecycle-livedata:2.0.0] C:\Users\yunie\.gradle\caches\transforms-2\files-2.1\2d29ced361eea5fffbed9fb556d155f6\lifecycle-livedata-2.0.0\AndroidManifest.xml:17:1-22:12
MERGED from [androidx.lifecycle:lifecycle-livedata-core:2.0.0] C:\Users\yunie\.gradle\caches\transforms-2\files-2.1\7b6a609d802835fa1dbcb0f2ef1fd224\lifecycle-livedata-core-2.0.0\AndroidManifest.xml:17:1-22:12
MERGED from [androidx.arch.core:core-runtime:2.0.0] C:\Users\yunie\.gradle\caches\transforms-2\files-2.1\32cfe830593faf8eb29c36fbfd3bcefd\core-runtime-2.0.0\AndroidManifest.xml:17:1-22:12
INJECTED from D:\Kotlin\Recurso de kotlin curse\WeatherApp\app\src\main\AndroidManifest.xml:2:1-37:12
INJECTED from D:\Kotlin\Recurso de kotlin curse\WeatherApp\app\src\main\AndroidManifest.xml:2:1-37:12
INJECTED from D:\Kotlin\Recurso de kotlin curse\WeatherApp\app\src\main\AndroidManifest.xml:2:1-37:12
	package
		ADDED from D:\Kotlin\Recurso de kotlin curse\WeatherApp\app\src\main\AndroidManifest.xml:3:5-29
		INJECTED from D:\Kotlin\Recurso de kotlin curse\WeatherApp\app\src\main\AndroidManifest.xml
		INJECTED from D:\Kotlin\Recurso de kotlin curse\WeatherApp\app\src\main\AndroidManifest.xml
	android:versionName
		INJECTED from D:\Kotlin\Recurso de kotlin curse\WeatherApp\app\src\main\AndroidManifest.xml
		ADDED from D:\Kotlin\Recurso de kotlin curse\WeatherApp\app\src\main\AndroidManifest.xml:2:1-37:12
		INJECTED from D:\Kotlin\Recurso de kotlin curse\WeatherApp\app\src\main\AndroidManifest.xml
	android:versionCode
		INJECTED from D:\Kotlin\Recurso de kotlin curse\WeatherApp\app\src\main\AndroidManifest.xml
		ADDED from D:\Kotlin\Recurso de kotlin curse\WeatherApp\app\src\main\AndroidManifest.xml:2:1-37:12
		INJECTED from D:\Kotlin\Recurso de kotlin curse\WeatherApp\app\src\main\AndroidManifest.xml
	xmlns:android
		ADDED from D:\Kotlin\Recurso de kotlin curse\WeatherApp\app\src\main\AndroidManifest.xml:2:11-69
uses-permission#android.permission.INTERNET
ADDED from D:\Kotlin\Recurso de kotlin curse\WeatherApp\app\src\main\AndroidManifest.xml:8:5-67
	android:name
		ADDED from D:\Kotlin\Recurso de kotlin curse\WeatherApp\app\src\main\AndroidManifest.xml:8:22-64
uses-permission#android.permission.ACCESS_NETWORK_STATE
ADDED from D:\Kotlin\Recurso de kotlin curse\WeatherApp\app\src\main\AndroidManifest.xml:9:5-79
	android:name
		ADDED from D:\Kotlin\Recurso de kotlin curse\WeatherApp\app\src\main\AndroidManifest.xml:9:22-76
uses-permission#android.permission.ACCESS_WIFI_STATE
ADDED from D:\Kotlin\Recurso de kotlin curse\WeatherApp\app\src\main\AndroidManifest.xml:10:5-76
	android:name
		ADDED from D:\Kotlin\Recurso de kotlin curse\WeatherApp\app\src\main\AndroidManifest.xml:10:22-73
uses-permission#android.permission.ACCESS_FINE_LOCATION
ADDED from D:\Kotlin\Recurso de kotlin curse\WeatherApp\app\src\main\AndroidManifest.xml:14:5-79
	android:name
		ADDED from D:\Kotlin\Recurso de kotlin curse\WeatherApp\app\src\main\AndroidManifest.xml:14:22-76
uses-permission#android.permission.ACCESS_COARSE_LOCATION
ADDED from D:\Kotlin\Recurso de kotlin curse\WeatherApp\app\src\main\AndroidManifest.xml:15:5-81
	android:name
		ADDED from D:\Kotlin\Recurso de kotlin curse\WeatherApp\app\src\main\AndroidManifest.xml:15:22-78
application
ADDED from D:\Kotlin\Recurso de kotlin curse\WeatherApp\app\src\main\AndroidManifest.xml:17:5-35:19
MERGED from [com.karumi:dexter:6.0.1] C:\Users\yunie\.gradle\caches\transforms-2\files-2.1\33e463cb00bf3c8b5c973798eba6a91c\jetified-dexter-6.0.1\AndroidManifest.xml:26:5-30:19
MERGED from [com.karumi:dexter:6.0.1] C:\Users\yunie\.gradle\caches\transforms-2\files-2.1\33e463cb00bf3c8b5c973798eba6a91c\jetified-dexter-6.0.1\AndroidManifest.xml:26:5-30:19
MERGED from [com.google.android.material:material:1.1.0] C:\Users\yunie\.gradle\caches\transforms-2\files-2.1\5c06b4c920bade8b263672a626e753be\material-1.1.0\AndroidManifest.xml:22:5-20
MERGED from [com.google.android.material:material:1.1.0] C:\Users\yunie\.gradle\caches\transforms-2\files-2.1\5c06b4c920bade8b263672a626e753be\material-1.1.0\AndroidManifest.xml:22:5-20
MERGED from [androidx.constraintlayout:constraintlayout:1.1.3] C:\Users\yunie\.gradle\caches\transforms-2\files-2.1\f5f7a66620d8831b0e3f7e12ec37a827\constraintlayout-1.1.3\AndroidManifest.xml:9:5-20
MERGED from [androidx.constraintlayout:constraintlayout:1.1.3] C:\Users\yunie\.gradle\caches\transforms-2\files-2.1\f5f7a66620d8831b0e3f7e12ec37a827\constraintlayout-1.1.3\AndroidManifest.xml:9:5-20
MERGED from [com.google.android.gms:play-services-location:17.0.0] C:\Users\yunie\.gradle\caches\transforms-2\files-2.1\6b86d061e80bfd4127c5e61d166b3f3b\jetified-play-services-location-17.0.0\AndroidManifest.xml:7:5-20
MERGED from [com.google.android.gms:play-services-location:17.0.0] C:\Users\yunie\.gradle\caches\transforms-2\files-2.1\6b86d061e80bfd4127c5e61d166b3f3b\jetified-play-services-location-17.0.0\AndroidManifest.xml:7:5-20
MERGED from [com.google.android.gms:play-services-base:17.0.0] C:\Users\yunie\.gradle\caches\transforms-2\files-2.1\a1852856b1d290555ec8c0cfe17a2224\jetified-play-services-base-17.0.0\AndroidManifest.xml:22:5-27:19
MERGED from [com.google.android.gms:play-services-base:17.0.0] C:\Users\yunie\.gradle\caches\transforms-2\files-2.1\a1852856b1d290555ec8c0cfe17a2224\jetified-play-services-base-17.0.0\AndroidManifest.xml:22:5-27:19
MERGED from [com.google.android.gms:play-services-places-placereport:17.0.0] C:\Users\yunie\.gradle\caches\transforms-2\files-2.1\ce7ed83500a245b00a61bb370302df12\jetified-play-services-places-placereport-17.0.0\AndroidManifest.xml:22:5-20
MERGED from [com.google.android.gms:play-services-places-placereport:17.0.0] C:\Users\yunie\.gradle\caches\transforms-2\files-2.1\ce7ed83500a245b00a61bb370302df12\jetified-play-services-places-placereport-17.0.0\AndroidManifest.xml:22:5-20
MERGED from [com.google.android.gms:play-services-tasks:17.0.0] C:\Users\yunie\.gradle\caches\transforms-2\files-2.1\b3152b278fc6d4f36bb2f92ad4326265\jetified-play-services-tasks-17.0.0\AndroidManifest.xml:7:5-20
MERGED from [com.google.android.gms:play-services-tasks:17.0.0] C:\Users\yunie\.gradle\caches\transforms-2\files-2.1\b3152b278fc6d4f36bb2f92ad4326265\jetified-play-services-tasks-17.0.0\AndroidManifest.xml:7:5-20
MERGED from [com.google.android.gms:play-services-basement:17.0.0] C:\Users\yunie\.gradle\caches\transforms-2\files-2.1\a5708f76bd0138d4b7ff900108558b44\jetified-play-services-basement-17.0.0\AndroidManifest.xml:22:5-26:19
MERGED from [com.google.android.gms:play-services-basement:17.0.0] C:\Users\yunie\.gradle\caches\transforms-2\files-2.1\a5708f76bd0138d4b7ff900108558b44\jetified-play-services-basement-17.0.0\AndroidManifest.xml:22:5-26:19
MERGED from [androidx.core:core:1.2.0] C:\Users\yunie\.gradle\caches\transforms-2\files-2.1\f8a25a8e7a6c14f5ca703a491b755ba2\core-1.2.0\AndroidManifest.xml:24:5-89
MERGED from [androidx.core:core:1.2.0] C:\Users\yunie\.gradle\caches\transforms-2\files-2.1\f8a25a8e7a6c14f5ca703a491b755ba2\core-1.2.0\AndroidManifest.xml:24:5-89
MERGED from [androidx.versionedparcelable:versionedparcelable:1.1.0] C:\Users\yunie\.gradle\caches\transforms-2\files-2.1\433b8fba667129f84d564b9e3aaa0ddd\versionedparcelable-1.1.0\AndroidManifest.xml:24:5-25:19
MERGED from [androidx.versionedparcelable:versionedparcelable:1.1.0] C:\Users\yunie\.gradle\caches\transforms-2\files-2.1\433b8fba667129f84d564b9e3aaa0ddd\versionedparcelable-1.1.0\AndroidManifest.xml:24:5-25:19
	android:appComponentFactory
		ADDED from [androidx.core:core:1.2.0] C:\Users\yunie\.gradle\caches\transforms-2\files-2.1\f8a25a8e7a6c14f5ca703a491b755ba2\core-1.2.0\AndroidManifest.xml:24:18-86
	android:supportsRtl
		ADDED from D:\Kotlin\Recurso de kotlin curse\WeatherApp\app\src\main\AndroidManifest.xml:22:9-35
	android:label
		ADDED from D:\Kotlin\Recurso de kotlin curse\WeatherApp\app\src\main\AndroidManifest.xml:20:9-41
	android:roundIcon
		ADDED from D:\Kotlin\Recurso de kotlin curse\WeatherApp\app\src\main\AndroidManifest.xml:21:9-54
	android:icon
		ADDED from D:\Kotlin\Recurso de kotlin curse\WeatherApp\app\src\main\AndroidManifest.xml:19:9-43
	android:allowBackup
		ADDED from D:\Kotlin\Recurso de kotlin curse\WeatherApp\app\src\main\AndroidManifest.xml:18:9-35
	android:theme
		ADDED from D:\Kotlin\Recurso de kotlin curse\WeatherApp\app\src\main\AndroidManifest.xml:23:9-40
activity#com.weatherapp.activities.MainActivity
ADDED from D:\Kotlin\Recurso de kotlin curse\WeatherApp\app\src\main\AndroidManifest.xml:25:9-33:20
	android:screenOrientation
		ADDED from D:\Kotlin\Recurso de kotlin curse\WeatherApp\app\src\main\AndroidManifest.xml:27:13-49
	android:name
		ADDED from D:\Kotlin\Recurso de kotlin curse\WeatherApp\app\src\main\AndroidManifest.xml:26:13-52
intent-filter#action:name:android.intent.action.MAIN+category:name:android.intent.category.LAUNCHER
ADDED from D:\Kotlin\Recurso de kotlin curse\WeatherApp\app\src\main\AndroidManifest.xml:28:13-32:29
action#android.intent.action.MAIN
ADDED from D:\Kotlin\Recurso de kotlin curse\WeatherApp\app\src\main\AndroidManifest.xml:29:17-69
	android:name
		ADDED from D:\Kotlin\Recurso de kotlin curse\WeatherApp\app\src\main\AndroidManifest.xml:29:25-66
category#android.intent.category.LAUNCHER
ADDED from D:\Kotlin\Recurso de kotlin curse\WeatherApp\app\src\main\AndroidManifest.xml:31:17-77
	android:name
		ADDED from D:\Kotlin\Recurso de kotlin curse\WeatherApp\app\src\main\AndroidManifest.xml:31:27-74
uses-sdk
INJECTED from D:\Kotlin\Recurso de kotlin curse\WeatherApp\app\src\main\AndroidManifest.xml reason: use-sdk injection requested
INJECTED from D:\Kotlin\Recurso de kotlin curse\WeatherApp\app\src\main\AndroidManifest.xml
INJECTED from D:\Kotlin\Recurso de kotlin curse\WeatherApp\app\src\main\AndroidManifest.xml
MERGED from [androidx.core:core-ktx:1.2.0] C:\Users\yunie\.gradle\caches\transforms-2\files-2.1\bf6c48b1534ae8b9bcfc8078effa2a58\jetified-core-ktx-1.2.0\AndroidManifest.xml:5:5-7:41
MERGED from [androidx.core:core-ktx:1.2.0] C:\Users\yunie\.gradle\caches\transforms-2\files-2.1\bf6c48b1534ae8b9bcfc8078effa2a58\jetified-core-ktx-1.2.0\AndroidManifest.xml:5:5-7:41
MERGED from [com.karumi:dexter:6.0.1] C:\Users\yunie\.gradle\caches\transforms-2\files-2.1\33e463cb00bf3c8b5c973798eba6a91c\jetified-dexter-6.0.1\AndroidManifest.xml:22:5-24:41
MERGED from [com.karumi:dexter:6.0.1] C:\Users\yunie\.gradle\caches\transforms-2\files-2.1\33e463cb00bf3c8b5c973798eba6a91c\jetified-dexter-6.0.1\AndroidManifest.xml:22:5-24:41
MERGED from [com.google.android.material:material:1.1.0] C:\Users\yunie\.gradle\caches\transforms-2\files-2.1\5c06b4c920bade8b263672a626e753be\material-1.1.0\AndroidManifest.xml:20:5-44
MERGED from [com.google.android.material:material:1.1.0] C:\Users\yunie\.gradle\caches\transforms-2\files-2.1\5c06b4c920bade8b263672a626e753be\material-1.1.0\AndroidManifest.xml:20:5-44
MERGED from [androidx.appcompat:appcompat:1.1.0] C:\Users\yunie\.gradle\caches\transforms-2\files-2.1\5988781b109aa2e81ee2deed8375ae92\appcompat-1.1.0\AndroidManifest.xml:20:5-22:41
MERGED from [androidx.appcompat:appcompat:1.1.0] C:\Users\yunie\.gradle\caches\transforms-2\files-2.1\5988781b109aa2e81ee2deed8375ae92\appcompat-1.1.0\AndroidManifest.xml:20:5-22:41
MERGED from [androidx.constraintlayout:constraintlayout:1.1.3] C:\Users\yunie\.gradle\caches\transforms-2\files-2.1\f5f7a66620d8831b0e3f7e12ec37a827\constraintlayout-1.1.3\AndroidManifest.xml:5:5-7:41
MERGED from [androidx.constraintlayout:constraintlayout:1.1.3] C:\Users\yunie\.gradle\caches\transforms-2\files-2.1\f5f7a66620d8831b0e3f7e12ec37a827\constraintlayout-1.1.3\AndroidManifest.xml:5:5-7:41
MERGED from [com.google.android.gms:play-services-location:17.0.0] C:\Users\yunie\.gradle\caches\transforms-2\files-2.1\6b86d061e80bfd4127c5e61d166b3f3b\jetified-play-services-location-17.0.0\AndroidManifest.xml:5:5-44
MERGED from [com.google.android.gms:play-services-location:17.0.0] C:\Users\yunie\.gradle\caches\transforms-2\files-2.1\6b86d061e80bfd4127c5e61d166b3f3b\jetified-play-services-location-17.0.0\AndroidManifest.xml:5:5-44
MERGED from [androidx.viewpager2:viewpager2:1.0.0] C:\Users\yunie\.gradle\caches\transforms-2\files-2.1\f24d20cba64d2e369ac3133f223f08fb\jetified-viewpager2-1.0.0\AndroidManifest.xml:20:5-22:41
MERGED from [androidx.viewpager2:viewpager2:1.0.0] C:\Users\yunie\.gradle\caches\transforms-2\files-2.1\f24d20cba64d2e369ac3133f223f08fb\jetified-viewpager2-1.0.0\AndroidManifest.xml:20:5-22:41
MERGED from [com.google.android.gms:play-services-base:17.0.0] C:\Users\yunie\.gradle\caches\transforms-2\files-2.1\a1852856b1d290555ec8c0cfe17a2224\jetified-play-services-base-17.0.0\AndroidManifest.xml:20:5-44
MERGED from [com.google.android.gms:play-services-base:17.0.0] C:\Users\yunie\.gradle\caches\transforms-2\files-2.1\a1852856b1d290555ec8c0cfe17a2224\jetified-play-services-base-17.0.0\AndroidManifest.xml:20:5-44
MERGED from [com.google.android.gms:play-services-places-placereport:17.0.0] C:\Users\yunie\.gradle\caches\transforms-2\files-2.1\ce7ed83500a245b00a61bb370302df12\jetified-play-services-places-placereport-17.0.0\AndroidManifest.xml:20:5-44
MERGED from [com.google.android.gms:play-services-places-placereport:17.0.0] C:\Users\yunie\.gradle\caches\transforms-2\files-2.1\ce7ed83500a245b00a61bb370302df12\jetified-play-services-places-placereport-17.0.0\AndroidManifest.xml:20:5-44
MERGED from [com.google.android.gms:play-services-tasks:17.0.0] C:\Users\yunie\.gradle\caches\transforms-2\files-2.1\b3152b278fc6d4f36bb2f92ad4326265\jetified-play-services-tasks-17.0.0\AndroidManifest.xml:5:5-44
MERGED from [com.google.android.gms:play-services-tasks:17.0.0] C:\Users\yunie\.gradle\caches\transforms-2\files-2.1\b3152b278fc6d4f36bb2f92ad4326265\jetified-play-services-tasks-17.0.0\AndroidManifest.xml:5:5-44
MERGED from [com.google.android.gms:play-services-basement:17.0.0] C:\Users\yunie\.gradle\caches\transforms-2\files-2.1\a5708f76bd0138d4b7ff900108558b44\jetified-play-services-basement-17.0.0\AndroidManifest.xml:20:5-44
MERGED from [com.google.android.gms:play-services-basement:17.0.0] C:\Users\yunie\.gradle\caches\transforms-2\files-2.1\a5708f76bd0138d4b7ff900108558b44\jetified-play-services-basement-17.0.0\AndroidManifest.xml:20:5-44
MERGED from [androidx.fragment:fragment:1.1.0] C:\Users\yunie\.gradle\caches\transforms-2\files-2.1\2b728301d77254c90b065a7562075b49\fragment-1.1.0\AndroidManifest.xml:20:5-22:41
MERGED from [androidx.fragment:fragment:1.1.0] C:\Users\yunie\.gradle\caches\transforms-2\files-2.1\2b728301d77254c90b065a7562075b49\fragment-1.1.0\AndroidManifest.xml:20:5-22:41
MERGED from [androidx.appcompat:appcompat-resources:1.1.0] C:\Users\yunie\.gradle\caches\transforms-2\files-2.1\23e56bf4112e29058c6bdbb998741be3\jetified-appcompat-resources-1.1.0\AndroidManifest.xml:20:5-22:41
MERGED from [androidx.appcompat:appcompat-resources:1.1.0] C:\Users\yunie\.gradle\caches\transforms-2\files-2.1\23e56bf4112e29058c6bdbb998741be3\jetified-appcompat-resources-1.1.0\AndroidManifest.xml:20:5-22:41
MERGED from [androidx.drawerlayout:drawerlayout:1.0.0] C:\Users\yunie\.gradle\caches\transforms-2\files-2.1\cfd36d373bdd98f673d73f1567426fdc\drawerlayout-1.0.0\AndroidManifest.xml:20:5-44
MERGED from [androidx.drawerlayout:drawerlayout:1.0.0] C:\Users\yunie\.gradle\caches\transforms-2\files-2.1\cfd36d373bdd98f673d73f1567426fdc\drawerlayout-1.0.0\AndroidManifest.xml:20:5-44
MERGED from [androidx.coordinatorlayout:coordinatorlayout:1.1.0] C:\Users\yunie\.gradle\caches\transforms-2\files-2.1\0794bcf9945539c65bda912d2756d9e0\coordinatorlayout-1.1.0\AndroidManifest.xml:20:5-22:41
MERGED from [androidx.coordinatorlayout:coordinatorlayout:1.1.0] C:\Users\yunie\.gradle\caches\transforms-2\files-2.1\0794bcf9945539c65bda912d2756d9e0\coordinatorlayout-1.1.0\AndroidManifest.xml:20:5-22:41
MERGED from [androidx.transition:transition:1.2.0] C:\Users\yunie\.gradle\caches\transforms-2\files-2.1\01aff950c9c0ff85291149845ccae350\transition-1.2.0\AndroidManifest.xml:20:5-22:41
MERGED from [androidx.transition:transition:1.2.0] C:\Users\yunie\.gradle\caches\transforms-2\files-2.1\01aff950c9c0ff85291149845ccae350\transition-1.2.0\AndroidManifest.xml:20:5-22:41
MERGED from [androidx.vectordrawable:vectordrawable-animated:1.1.0] C:\Users\yunie\.gradle\caches\transforms-2\files-2.1\9b4bd89cc4df75282110b16ba7443912\vectordrawable-animated-1.1.0\AndroidManifest.xml:20:5-22:41
MERGED from [androidx.vectordrawable:vectordrawable-animated:1.1.0] C:\Users\yunie\.gradle\caches\transforms-2\files-2.1\9b4bd89cc4df75282110b16ba7443912\vectordrawable-animated-1.1.0\AndroidManifest.xml:20:5-22:41
MERGED from [androidx.vectordrawable:vectordrawable:1.1.0] C:\Users\yunie\.gradle\caches\transforms-2\files-2.1\cf9a3c4239bbce36276eb74597875761\vectordrawable-1.1.0\AndroidManifest.xml:20:5-22:41
MERGED from [androidx.vectordrawable:vectordrawable:1.1.0] C:\Users\yunie\.gradle\caches\transforms-2\files-2.1\cf9a3c4239bbce36276eb74597875761\vectordrawable-1.1.0\AndroidManifest.xml:20:5-22:41
MERGED from [androidx.viewpager:viewpager:1.0.0] C:\Users\yunie\.gradle\caches\transforms-2\files-2.1\04c94a1e7cecc3639be07ee7f25b855e\viewpager-1.0.0\AndroidManifest.xml:20:5-44
MERGED from [androidx.viewpager:viewpager:1.0.0] C:\Users\yunie\.gradle\caches\transforms-2\files-2.1\04c94a1e7cecc3639be07ee7f25b855e\viewpager-1.0.0\AndroidManifest.xml:20:5-44
MERGED from [androidx.loader:loader:1.0.0] C:\Users\yunie\.gradle\caches\transforms-2\files-2.1\ca5a9502cec0e083550aa68eca95ec74\loader-1.0.0\AndroidManifest.xml:20:5-44
MERGED from [androidx.loader:loader:1.0.0] C:\Users\yunie\.gradle\caches\transforms-2\files-2.1\ca5a9502cec0e083550aa68eca95ec74\loader-1.0.0\AndroidManifest.xml:20:5-44
MERGED from [androidx.activity:activity:1.0.0] C:\Users\yunie\.gradle\caches\transforms-2\files-2.1\ecffca00653532609abe88e9789dadff\jetified-activity-1.0.0\AndroidManifest.xml:20:5-22:41
MERGED from [androidx.activity:activity:1.0.0] C:\Users\yunie\.gradle\caches\transforms-2\files-2.1\ecffca00653532609abe88e9789dadff\jetified-activity-1.0.0\AndroidManifest.xml:20:5-22:41
MERGED from [androidx.recyclerview:recyclerview:1.1.0] C:\Users\yunie\.gradle\caches\transforms-2\files-2.1\4bf87db73252c50799dd4779e7584e6b\recyclerview-1.1.0\AndroidManifest.xml:20:5-22:41
MERGED from [androidx.recyclerview:recyclerview:1.1.0] C:\Users\yunie\.gradle\caches\transforms-2\files-2.1\4bf87db73252c50799dd4779e7584e6b\recyclerview-1.1.0\AndroidManifest.xml:20:5-22:41
MERGED from [androidx.customview:customview:1.0.0] C:\Users\yunie\.gradle\caches\transforms-2\files-2.1\9185af937948e70e6273b8b7c146a0fd\customview-1.0.0\AndroidManifest.xml:20:5-44
MERGED from [androidx.customview:customview:1.0.0] C:\Users\yunie\.gradle\caches\transforms-2\files-2.1\9185af937948e70e6273b8b7c146a0fd\customview-1.0.0\AndroidManifest.xml:20:5-44
MERGED from [androidx.core:core:1.2.0] C:\Users\yunie\.gradle\caches\transforms-2\files-2.1\f8a25a8e7a6c14f5ca703a491b755ba2\core-1.2.0\AndroidManifest.xml:20:5-22:41
MERGED from [androidx.core:core:1.2.0] C:\Users\yunie\.gradle\caches\transforms-2\files-2.1\f8a25a8e7a6c14f5ca703a491b755ba2\core-1.2.0\AndroidManifest.xml:20:5-22:41
MERGED from [androidx.cursoradapter:cursoradapter:1.0.0] C:\Users\yunie\.gradle\caches\transforms-2\files-2.1\2b6c40ebf3a7527b5521abceeab31967\cursoradapter-1.0.0\AndroidManifest.xml:20:5-44
MERGED from [androidx.cursoradapter:cursoradapter:1.0.0] C:\Users\yunie\.gradle\caches\transforms-2\files-2.1\2b6c40ebf3a7527b5521abceeab31967\cursoradapter-1.0.0\AndroidManifest.xml:20:5-44
MERGED from [androidx.cardview:cardview:1.0.0] C:\Users\yunie\.gradle\caches\transforms-2\files-2.1\ef8209598623eddd7fbffdae67b9c452\cardview-1.0.0\AndroidManifest.xml:20:5-44
MERGED from [androidx.cardview:cardview:1.0.0] C:\Users\yunie\.gradle\caches\transforms-2\files-2.1\ef8209598623eddd7fbffdae67b9c452\cardview-1.0.0\AndroidManifest.xml:20:5-44
MERGED from [androidx.versionedparcelable:versionedparcelable:1.1.0] C:\Users\yunie\.gradle\caches\transforms-2\files-2.1\433b8fba667129f84d564b9e3aaa0ddd\versionedparcelable-1.1.0\AndroidManifest.xml:20:5-22:41
MERGED from [androidx.versionedparcelable:versionedparcelable:1.1.0] C:\Users\yunie\.gradle\caches\transforms-2\files-2.1\433b8fba667129f84d564b9e3aaa0ddd\versionedparcelable-1.1.0\AndroidManifest.xml:20:5-22:41
MERGED from [androidx.lifecycle:lifecycle-runtime:2.1.0] C:\Users\yunie\.gradle\caches\transforms-2\files-2.1\d9d950513c2b90d5b5a1cd36e8e2141d\lifecycle-runtime-2.1.0\AndroidManifest.xml:20:5-44
MERGED from [androidx.lifecycle:lifecycle-runtime:2.1.0] C:\Users\yunie\.gradle\caches\transforms-2\files-2.1\d9d950513c2b90d5b5a1cd36e8e2141d\lifecycle-runtime-2.1.0\AndroidManifest.xml:20:5-44
MERGED from [androidx.lifecycle:lifecycle-viewmodel:2.1.0] C:\Users\yunie\.gradle\caches\transforms-2\files-2.1\8456620f0bc752195c9a1b00fa0ee35b\lifecycle-viewmodel-2.1.0\AndroidManifest.xml:20:5-44
MERGED from [androidx.lifecycle:lifecycle-viewmodel:2.1.0] C:\Users\yunie\.gradle\caches\transforms-2\files-2.1\8456620f0bc752195c9a1b00fa0ee35b\lifecycle-viewmodel-2.1.0\AndroidManifest.xml:20:5-44
MERGED from [androidx.savedstate:savedstate:1.0.0] C:\Users\yunie\.gradle\caches\transforms-2\files-2.1\d1534bc0e3871862af150714bf66906a\jetified-savedstate-1.0.0\AndroidManifest.xml:20:5-22:41
MERGED from [androidx.savedstate:savedstate:1.0.0] C:\Users\yunie\.gradle\caches\transforms-2\files-2.1\d1534bc0e3871862af150714bf66906a\jetified-savedstate-1.0.0\AndroidManifest.xml:20:5-22:41
MERGED from [androidx.interpolator:interpolator:1.0.0] C:\Users\yunie\.gradle\caches\transforms-2\files-2.1\c7f0935e7d55a72aff026eb580088845\interpolator-1.0.0\AndroidManifest.xml:20:5-44
MERGED from [androidx.interpolator:interpolator:1.0.0] C:\Users\yunie\.gradle\caches\transforms-2\files-2.1\c7f0935e7d55a72aff026eb580088845\interpolator-1.0.0\AndroidManifest.xml:20:5-44
MERGED from [androidx.lifecycle:lifecycle-livedata:2.0.0] C:\Users\yunie\.gradle\caches\transforms-2\files-2.1\2d29ced361eea5fffbed9fb556d155f6\lifecycle-livedata-2.0.0\AndroidManifest.xml:20:5-44
MERGED from [androidx.lifecycle:lifecycle-livedata:2.0.0] C:\Users\yunie\.gradle\caches\transforms-2\files-2.1\2d29ced361eea5fffbed9fb556d155f6\lifecycle-livedata-2.0.0\AndroidManifest.xml:20:5-44
MERGED from [androidx.lifecycle:lifecycle-livedata-core:2.0.0] C:\Users\yunie\.gradle\caches\transforms-2\files-2.1\7b6a609d802835fa1dbcb0f2ef1fd224\lifecycle-livedata-core-2.0.0\AndroidManifest.xml:20:5-44
MERGED from [androidx.lifecycle:lifecycle-livedata-core:2.0.0] C:\Users\yunie\.gradle\caches\transforms-2\files-2.1\7b6a609d802835fa1dbcb0f2ef1fd224\lifecycle-livedata-core-2.0.0\AndroidManifest.xml:20:5-44
MERGED from [androidx.arch.core:core-runtime:2.0.0] C:\Users\yunie\.gradle\caches\transforms-2\files-2.1\32cfe830593faf8eb29c36fbfd3bcefd\core-runtime-2.0.0\AndroidManifest.xml:20:5-44
MERGED from [androidx.arch.core:core-runtime:2.0.0] C:\Users\yunie\.gradle\caches\transforms-2\files-2.1\32cfe830593faf8eb29c36fbfd3bcefd\core-runtime-2.0.0\AndroidManifest.xml:20:5-44
INJECTED from D:\Kotlin\Recurso de kotlin curse\WeatherApp\app\src\main\AndroidManifest.xml
INJECTED from D:\Kotlin\Recurso de kotlin curse\WeatherApp\app\src\main\AndroidManifest.xml
	android:targetSdkVersion
		INJECTED from D:\Kotlin\Recurso de kotlin curse\WeatherApp\app\src\main\AndroidManifest.xml
		ADDED from D:\Kotlin\Recurso de kotlin curse\WeatherApp\app\src\main\AndroidManifest.xml
		INJECTED from D:\Kotlin\Recurso de kotlin curse\WeatherApp\app\src\main\AndroidManifest.xml
	android:minSdkVersion
		INJECTED from D:\Kotlin\Recurso de kotlin curse\WeatherApp\app\src\main\AndroidManifest.xml
		ADDED from D:\Kotlin\Recurso de kotlin curse\WeatherApp\app\src\main\AndroidManifest.xml
		INJECTED from D:\Kotlin\Recurso de kotlin curse\WeatherApp\app\src\main\AndroidManifest.xml
activity#com.karumi.dexter.DexterActivity
ADDED from [com.karumi:dexter:6.0.1] C:\Users\yunie\.gradle\caches\transforms-2\files-2.1\33e463cb00bf3c8b5c973798eba6a91c\jetified-dexter-6.0.1\AndroidManifest.xml:27:9-29:72
	android:theme
		ADDED from [com.karumi:dexter:6.0.1] C:\Users\yunie\.gradle\caches\transforms-2\files-2.1\33e463cb00bf3c8b5c973798eba6a91c\jetified-dexter-6.0.1\AndroidManifest.xml:29:13-69
	android:name
		ADDED from [com.karumi:dexter:6.0.1] C:\Users\yunie\.gradle\caches\transforms-2\files-2.1\33e463cb00bf3c8b5c973798eba6a91c\jetified-dexter-6.0.1\AndroidManifest.xml:28:13-60
activity#com.google.android.gms.common.api.GoogleApiActivity
ADDED from [com.google.android.gms:play-services-base:17.0.0] C:\Users\yunie\.gradle\caches\transforms-2\files-2.1\a1852856b1d290555ec8c0cfe17a2224\jetified-play-services-base-17.0.0\AndroidManifest.xml:23:9-26:75
	android:exported
		ADDED from [com.google.android.gms:play-services-base:17.0.0] C:\Users\yunie\.gradle\caches\transforms-2\files-2.1\a1852856b1d290555ec8c0cfe17a2224\jetified-play-services-base-17.0.0\AndroidManifest.xml:25:13-37
	android:theme
		ADDED from [com.google.android.gms:play-services-base:17.0.0] C:\Users\yunie\.gradle\caches\transforms-2\files-2.1\a1852856b1d290555ec8c0cfe17a2224\jetified-play-services-base-17.0.0\AndroidManifest.xml:26:13-72
	android:name
		ADDED from [com.google.android.gms:play-services-base:17.0.0] C:\Users\yunie\.gradle\caches\transforms-2\files-2.1\a1852856b1d290555ec8c0cfe17a2224\jetified-play-services-base-17.0.0\AndroidManifest.xml:24:13-79
meta-data#com.google.android.gms.version
ADDED from [com.google.android.gms:play-services-basement:17.0.0] C:\Users\yunie\.gradle\caches\transforms-2\files-2.1\a5708f76bd0138d4b7ff900108558b44\jetified-play-services-basement-17.0.0\AndroidManifest.xml:23:9-25:69
	android:value
		ADDED from [com.google.android.gms:play-services-basement:17.0.0] C:\Users\yunie\.gradle\caches\transforms-2\files-2.1\a5708f76bd0138d4b7ff900108558b44\jetified-play-services-basement-17.0.0\AndroidManifest.xml:25:13-66
	android:name
		ADDED from [com.google.android.gms:play-services-basement:17.0.0] C:\Users\yunie\.gradle\caches\transforms-2\files-2.1\a5708f76bd0138d4b7ff900108558b44\jetified-play-services-basement-17.0.0\AndroidManifest.xml:24:13-58
